fpga/.Xil/Vivado-69201-zhaodi-node32/hw_ila_data_1/zip_work/waveform.vcd
$date
        2022-Jul-20 05:32:13
$end
$version
        Vivado v2020.2 (64-bit)
$end
$timescale
        1ps
$end
$scope module dut $end
$var reg 39 " system_top_i/rv_system/system_ila_0/inst/probe0_1 [38:0] $end
$var reg 1 I system_top_i/rv_system/system_ila_0/inst/probe1_1 $end
$var reg 1 J system_top_i/rv_system/system_ila_0/inst/probe2_1 $end
$var reg 5 K system_top_i/rv_system/system_ila_0/inst/probe3_1 [4:0] $end
$var reg 64 P system_top_i/rv_system/system_ila_0/inst/probe4_1 [63:0] $end
$var reg 64 2" system_top_i/rv_system/system_ila_0/inst/probe5_1 [63:0] $end
$var reg 1 r" system_top_i/rv_system/system_ila_0/inst/probe6_1 $end
$var reg 1 s" _TRIGGER $end
$var reg 1 t" _WINDOW $end
$var reg 1 u" _GAP $end
$upscope $end
$enddefinitions $end
#0
$dumpvars
b10000000000000000000000110000100 "
0I
0J
b10011 K
b1111111111111111111111111111111110000000000011110000000000000000 P
b101111000001110111111101011101 2"
0r"
0s"
1t"
0u"
$end
#2
b10000000000000000000000110001000 "
1I
1J
b10100 K
b0 P
#3
0I
0J
b101111000001110111111101011110 2"
#5
b10000000000000000000000110001100 "
1I
1J
b10101 K
b1111111111111111111111111111111110000000000100010011110100010000 P
#6
0I
0J
b101111000001110111111101011111 2"
#8
b10000000000000000000000110010000 "
1I
1J
b10110 K
b1000111111000 P
#9
0I
0J
b101111000001110111111101100000 2"
#11
b10000000000000000000000110010100 "
1I
1J
b10111 K
b1111111111111111111111111111111110000000000011001100000000000000 P
#12
0I
0J
b101111000001110111111101100001 2"
#14
b10000000000000000000000110011000 "
1I
1J
b11000 K
b0 P
#15
0I
0J
b101111000001110111111101100010 2"
#17
b10000000000000000000000110011100 "
1I
1J
b11001 K
b1111011100000 P
#18
0I
0J
b101111000001110111111101100011 2"
#20
b10000000000000000000000110100000 "
1I
1J
b11010 K
b1111111111111111111111111111111110000000000100011000000000000000 P
#21
0I
0J
b101111000001110111111101100100 2"
#23
b10000000000000000000000110100100 "
1I
1J
b11011 K
b0 P
#24
0I
0J
b101111000001110111111101100101 2"
#26
b10000000000000000000000110101000 "
1I
1J
b11100 K
#27
0I
0J
b101111000001110111111101100110 2"
#29
b10000000000000000000000110101100 "
1I
1J
b11101 K
#30
0I
0J
b101111000001110111111101100111 2"
#32
b10000000000000000000000110110000 "
1I
1J
b11110 K
b110110110110110110110110110110110110110110110110110110110110111 P
#33
0I
0J
b101111000001110111111101101000 2"
#35
b10000000000000000000000110110100 "
1I
1J
b11111 K
b1111111111111111111111111111111110000000000011110010011001010100 P
#36
0I
0J
b101111000001110111111101101001 2"
#38
b10000000000000000000000110111000 "
1I
1J
b10 K
b1111111111111111111111111111111110000000000100010011110001110000 P
#39
b10000000000000000000000110111100 "
b0 K
b1011000100001001 P
b101111000001110111111101101010 2"
#40
b10000000000000000000000111000000 "
0I
0J
b10 K
b10000000000000001011110111000000 P
b101111000001110111111101101011 2"
#48
b111111110000000000010111010001101000000 "
1I
b1111 K
b0 P
#49
0I
b101111000001110111111101101100 2"
#56
b10000000000000000000000000000100 "
1I
1J
b10 K
b10000000000000001011110111000000 P
#57
0I
0J
b101111000001110111111101101101 2"
#58
b10000000000000000000000000001000 "
1I
b0 K
b10000000000000000000000000001100 P
#59
0I
b101111000001110111111101101110 2"
#61
b10000000000000000000000000001100 "
1I
b1111101000 P
#62
0I
b101111000001110111111101101111 2"
#64
b10000000000000000000000000010000 "
1I
b0 P
#65
b10000000000000000000000000010100 "
1J
b1011 K
b10 P
b101111000001110111111101110000 2"
#66
0I
0J
b101111000001110111111101110001 2"
#67
b10000000000000000000000000011000 "
1I
b0 K
b10000000000000000000000000011100 P
#68
0I
b101111000001110111111101110010 2"
#70
b10000000000000000000000010011100 "
1I
b1111111111111111111111111111111110000000000000011001110100101100 P
#71
0I
b101111000001110111111101110011 2"
#73
b10000000000000000000000010100000 "
1I
b1111111111111111111111111111111110000000000011101010100001101000 P
#74
0I
b101111000001110111111101110100 2"
#76
b10000000000000000000000010100100 "
1I
b1111111111111111111111111111111110000000000100011000000000000000 P
#77
0I
b101111000001110111111101110101 2"
#79
b10000000000000000000000010101000 "
1I
b1111111111111111111111111111111110000000000011110101111001001000 P
#80
b10000000000000000000000010101100 "
1J
b101 K
b10000000000000001001000010101100 P
b101111000001110111111101110110 2"
#81
0I
0J
b101111000001110111111101110111 2"
#83
b10000000000000000000000010110000 "
1I
b0 K
b111000 P
#84
b10000000000000000000000010110100 "
1J
b110 K
b10000 P
b101111000001110111111101111000 2"
#85
0I
0J
b101111000001110111111101111001 2"
#87
b10000000000000000000000010111000 "
1I
b0 K
b1000000000 P
#88
b10000000000000000000000010111100 "
1J
b110 K
b10000000000000001001000010111100 P
b101111000001110111111101111010 2"
#89
0I
0J
b101111000001110111111101111011 2"
#91
b10000000000000000000000011000000 "
1I
b0 K
b1000100110000 P
#92
0I
b101111000001110111111101111100 2"
#94
b10000000000000000000000011000100 "
1I
1J
b110 K
b10000000000000000010101101000010 P
#95
0I
0J
b101111000001110111111101111101 2"
#97
b10000000000000000000000011001000 "
1I
b0 K
b1 P
#98
b10000000000000000000000011001100 "
1J
b1010 K
b10000000000000001011110111000000 P
b101111000001110111111101111110 2"
#99
0I
0J
b101111000001110111111101111111 2"
#101
b10000000000000000000000011010000 "
1I
b0 K
b0 P
#102
b10000000000000000000000011010100 "
1J
b1100 K
b1111111111111111111111111111111110000000000010111010001101000000 P
b101111000001110111111110000000 2"
#103
0I
0J
b101111000001110111111110000001 2"
#105
b10000000000000000000000011011000 "
1I
b0 K
b10001100110010011010001 P
#106
b10000000000000000000000011011100 "
1J
b101 K
b1111111111111111111111111111111110000000000100010011110001110000 P
b101111000001110111111110000010 2"
#107
0I
0J
b101111000001110111111110000011 2"
#109
b10000000000000000000000011100000 "
1I
b0 K
b1111100111 P
#110
0I
b101111000001110111111110000100 2"
#112
b10000000000000000000000011100100 "
1I
b110100011011011100 P
#113
0I
b101111000001110111111110000101 2"
#115
b10000000000000000000000011101000 "
1I
b111 P
#116
0I
b101111000001110111111110000110 2"
#118
b10000000000000000000000011101100 "
1I
b1 P
#119
0I
b101111000001110111111110000111 2"
#121
b10000000000000000000000011110000 "
1I
b100 P
#122
0I
b101111000001110111111110001000 2"
#124
b10000000000000000000000011110100 "
1I
b1111111111111111111111111111111110000000000011110000000000000000 P
#125
0I
b101111000001110111111110001001 2"
#127
b10000000000000000000000011111000 "
1I
b0 P
#128
0I
b101111000001110111111110001010 2"
#130
b10000000000000000000000011111100 "
1I
b1111111111111111111111111111111110000000000100010011110100010000 P
#131
0I
b101111000001110111111110001011 2"
#133
b10000000000000000000000100000000 "
1I
b1000111111000 P
#134
0I
b101111000001110111111110001100 2"
#136
b10000000000000000000000100000100 "
1I
b1111111111111111111111111111111110000000000011001100000000000000 P
#137
0I
b101111000001110111111110001101 2"
#139
b10000000000000000000000100001000 "
1I
b0 P
#140
0I
b101111000001110111111110001110 2"
#142
b10000000000000000000000100001100 "
1I
b1111011100000 P
#143
0I
b101111000001110111111110001111 2"
#145
b10000000000000000000000100010000 "
1I
b1111111111111111111111111111111110000000000100011000000000000000 P
#146
0I
b101111000001110111111110010000 2"
#148
b10000000000000000000000100010100 "
1I
b0 P
#149
0I
b101111000001110111111110010001 2"
#151
b10000000000000000000000100011000 "
1I
#152
0I
b101111000001110111111110010010 2"
#154
b10000000000000000000000100011100 "
1I
#155
0I
b101111000001110111111110010011 2"
#157
b10000000000000000000000100100000 "
1I
b110110110110110110110110110110110110110110110110110110110110111 P
#158
0I
b101111000001110111111110010100 2"
#160
b10000000000000000000000100100100 "
1I
b1111111111111111111111111111111110000000000011110010011001010100 P
#161
0I
b101111000001110111111110010101 2"
#163
b10000000000000000000000100101000 "
1I
b1111111111111111111111111111111110000000000100010011110001110000 P
#164
0I
b101111000001110111111110010110 2"
#167
b10000000000000000000000100101100 "
1I
1J
b100 K
b0 P
#168
0I
0J
b101111000001110111111110010111 2"
#170
b10000000000000000000000100110000 "
1I
b0 K
#171
b10000000000000000000000100110100 "
1J
b1 K
b10000000000000000000000100111000 P
b101111000001110111111110011000 2"
#172
0I
0J
b101111000001110111111110011001 2"
#179
b10000000000000000010101101000010 "
1I
1J
b11100 K
b10 P
#180
b10000000000000000010101101000100 "
b1111 K
b1111111111111111111111111111111110000000000010111010001101000000 P
b101111000001110111111110011010 2"
#181
0I
0J
b101111000001110111111110011011 2"
#182
b10000000000000000010101101000110 "
1I
1J
b10001 K
b100000100010 P
#183
b10000000000000000010101101001010 "
b1110 K
b0 P
b101111000001110111111110011100 2"
#184
b10000000000000000010101101001110 "
b10000 K
b11 P
b101111000001110111111110011101 2"
#185
b10000000000000000010101101010000 "
b110 K
b0 P
b101111000001110111111110011110 2"
#186
b10000000000000000010101101010100 "
0J
b0 K
b10000000000000000010101101011000 P
b101111000001110111111110011111 2"
#187
b10000000000000000010101101111100 "
b10000000000000000010101101111110 P
b101111000001110111111110100000 2"
#188
b10000000000000000010101111101100 "
1J
b1011 K
b10100000000000000000 P
b101111000001110111111110100001 2"
#189
b10000000000000000010101111110000 "
b1101 K
b100000100010 P
b101111000001110111111110100010 2"
#190
b10000000000000000010101111110100 "
b10001 K
b0 P
b101111000001110111111110100011 2"
#191
b10000000000000000010101111111000 "
0J
b0 K
b10000000000000000010101111111100 P
b101111000001110111111110100100 2"
#192
0I
b101111000001110111111110100101 2"
#204
b10000000000000000010101111111100 "
1I
1J
b1110 K
b11000000000100000010011111110011 P
#205
b10000000000000000010110000000000 "
b10001 K
b11 P
b101111000001110111111110100110 2"
#206
b10000000000000000010110000000100 "
0J
b0 K
b10000000000000000010110000001000 P
b101111000001110111111110100111 2"
#207
b10000000000000000010110000100010 "
1J
b10100000100000100010 P
b101111000001110111111110101000 2"
#208
b10000000000000000010110000100110 "
b1100 K
b11 P
b101111000001110111111110101001 2"
#209
b10000000000000000010110000101010 "
b10001 K
b100000100010 P
b101111000001110111111110101010 2"
#210
b10000000000000000010110000101100 "
0J
b0 K
b10000000000000000010110000110000 P
b101111000001110111111110101011 2"
#211
b10000000000000000010101101011000 "
1J
b1101 K
b1111111111111111111111111111111110000000000010111010001101000100 P
b101111000001110111111110101100 2"
#212
b10000000000000000010101101011100 "
b0 K
b1111111111111111111111111111111110000000000010111010001101000000 P
b101111000001110111111110101101 2"
#213
b10000000000000000010101101100000 "
b10000 K
b10000000000000000110101101100000 P
b101111000001110111111110101110 2"
#214
b10000000000000000010101101100100 "
b10000000000000000110100111001000 P
b101111000001110111111110101111 2"
#215
b10000000000000000010101101101000 "
b1100 K
b1110000 P
b101111000001110111111110110000 2"
#216
b10000000000000000010101101101100 "
b10000000000000000110101000111000 P
b101111000001110111111110110001 2"
#217
0I
0J
b101111000001110111111110110010 2"
#221
b10000000000000000010101101101110 "
1I
1J
b110 K
b1111111111111111111111111111111111111111111111111100001101000110 P
#222
b10000000000000000010101101110010 "
b1101 K
b100000100010 P
b101111000001110111111110110011 2"
#223
b10000000000000000010101101110100 "
b1100 K
b1111111111111111111111111111111110000000000010111010001101000000 P
b101111000001110111111110110100 2"
#224
b10000000000000000010101101110110 "
b110 K
b10000000000000000010110100001110 P
b101111000001110111111110110101 2"
#225
b10000000000000000010101101111000 "
b1011 K
b10 P
b101111000001110111111110110110 2"
#226
b10000000000000000010101101111010 "
b0 K
b10000000000000000010101101111100 P
b101111000001110111111110110111 2"
#227
b10000000000000000010110100001110 "
b10001 K
b10000000000000 P
b101111000001110111111110111000 2"
#228
b10000000000000000010110100010000 "
b1011 K
b100000100010 P
b101111000001110111111110111001 2"
#229
b10000000000000000010110100010010 "
b10000 K
b11000000000100000010 P
b101111000001110111111110111010 2"
#230
0I
0J
b101111000001110111111110111011 2"
#231
b10000000000000000010110100010110 "
1I
1J
b10001 K
b1100000000000 P
#232
b10000000000000000010110100011010 "
b1101 K
b10000000000000001011110111000000 P
b101111000001110111111110111100 2"
#233
b10000000000000000010110100011100 "
b11100 K
b11000000000100000 P
b101111000001110111111110111101 2"
#234
b10000000000000000010110100100000 "
b1111 K
b0 P
b101111000001110111111110111110 2"
#235
b10000000000000000010110100100100 "
b10001 K
b100000000000 P
b101111000001110111111110111111 2"
#236
b10000000000000000010110100101000 "
b110 K
b11111111111 P
b101111000001110111111111000000 2"
#237
b10000000000000000010110100101100 "
b11101 K
b0 P
b101111000001110111111111000001 2"
#238
b10000000000000000010110100110000 "
b1010 K
b1111111111111111111111111111111110000000000010111010001101000000 P
b101111000001110111111111000010 2"
#239
b10000000000000000010110100110010 "
b11100 K
b10000000000000001011110111000000 P
b101111000001110111111111000011 2"
#240
0I
0J
b101111000001110111111111000100 2"
#241
b10000000000000000010110100110110 "
1I
1J
b1111 K
b110000000001 P
#242
b10000000000000000010110100111010 "
0J
b0 K
b10000000000000000010110100111110 P
b101111000001110111111111000101 2"
#243
b10000000000000000010110111100110 "
1J
b10001 K
b1000000000000 P
b101111000001110111111111000110 2"
#244
b10000000000000000010110111101000 "
b1100 K
b101100000011 P
b101111000001110111111111000111 2"
#245
b10000000000000000010110111101100 "
0J
b0 K
b10000000000000000010110111110000 P
b101111000001110111111111001000 2"
#246
b10000000000000000010110111110000 "
b10000000000000000010110111110100 P
b101111000001110111111111001001 2"
#247
b10000000000000000010110111110100 "
1J
b1100 K
b110000000001 P
b101111000001110111111111001010 2"
#248
b10000000000000000010110111111000 "
0J
b0 K
b10000000000000000010110111111100 P
b101111000001110111111111001011 2"
#249
b10000000000000000010110111111100 "
0I
b10000000000000000010111000000000 P
b101111000001110111111111001100 2"
#257
b10000000000000000010111011111110 "
1I
1J
b1100 K
b10000000000000010010111011111110 P
#258
0I
0J
b101111000001110111111111001101 2"
#260
b10000000000000000010111100000010 "
1I
1J
b111000000000001011111111111000 P
#261
0I
0J
b101111000001110111111111001110 2"
#267
b10000000000000000010111100000110 "
1I
1J
b11110 K
b10001100110010011010010 P
#268
b10000000000000000010111100001010 "
b0 K
b10000000000000000010111100001100 P
b101111000001110111111111001111 2"
#269
b10000000000000000010110101101110 "
b10000 K
b10 P
b101111000001110111111111010000 2"
#270
b10000000000000000010110101110010 "
b110 K
b10000000000000000110110101110010 P
b101111000001110111111111010001 2"
#271
b10000000000000000010110101110110 "
b10000000000000000110101001001000 P
b101111000001110111111111010010 2"
#272
b10000000000000000010110101111010 "
b10000 K
b1000 P
b101111000001110111111111010011 2"
#273
b10000000000000000010110101111100 "
b10000000000000000110101001010000 P
b101111000001110111111111010100 2"
#274
0I
0J
b101111000001110111111111010101 2"
#278
b10000000000000000010110101111110 "
1I
1J
b1100 K
b1111111111111111111111111111111111111111111111111100010001110010 P
#279
0I
0J
b101111000001110111111111010110 2"
#281
b10000000000000000010110110000010 "
1I
1J
b10001 K
b0 P
#282
b10000000000000000010110110000110 "
b1100 K
b10000000000000000010111010111010 P
b101111000001110111111111010111 2"
#283
b10000000000000000010110110001000 "
b0 K
b10000000000000000010110110001010 P
b101111000001110111111111011000 2"
#284
b10000000000000000010110110001010 "
0I
0J
b1100 K
b1111111111111111111111111111111111111111111111111111110000000001 P
b101111000001110111111111011001 2"
#291
b10000000000000000010111010111010 "
1I
1J
b10001 K
b10001100110010011010010 P
#292
0I
0J
b101111000001110111111111011010 2"
#293
b10000000000000000010111010111110 "
1I
b0 K
b10000000000000000010111011000010 P
#294
b10000000000000000010111011000010 "
1J
b1110 K
b1100000000010000001001111111 P
b101111000001110111111111011011 2"
#295
b10000000000000000010111011000100 "
b1111000 P
b101111000001110111111111011100 2"
#296
b10000000000000000010111011001000 "
b1101 K
b10000000000000001011111000111000 P
b101111000001110111111111011101 2"
#297
0I
0J
b101111000001110111111111011110 2"
#299
b10000000000000000010111011001010 "
1I
b0 K
b110100011011011100 P
#300
b10000000000000000010111011001110 "
1J
b10000000000000000010111011010000 P
b101111000001110111111111011111 2"
#301
0I
0J
b101111000001110111111111100000 2"
#303
b10000000000000000000000100111000 "
1I
b0 P
#304
b10000000000000000000000100111100 "
1J
b101111000001110111111111100001 2"
#305
0I
0J
b101111000001110111111111100010 2"
#307
b10000000000000000000000101000000 "
1I
1J
b1 K
b1111111111111111111111111111111110000000000000011001110100101100 P
#308
0I
0J
b101111000001110111111111100011 2"
#310
b10000000000000000000000101000100 "
1I
1J
b11 K
b1111111111111111111111111111111110000000000011101010100001101000 P
#311
0I
0J
b101111000001110111111111100100 2"
#313
b10000000000000000000000101001000 "
1I
1J
b100 K
b1111111111111111111111111111111110000000000100011000000000000000 P
#314
0I
0J
b101111000001110111111111100101 2"
#316
b10000000000000000000000101001100 "
1I
1J
b101 K
b1111111111111111111111111111111110000000000011110101111001001000 P
#317
0I
0J
b101111000001110111111111100110 2"
#319
b10000000000000000000000101010000 "
1I
1J
b110 K
b111000 P
#320
0I
0J
b101111000001110111111111100111 2"
#322
b10000000000000000000000101010100 "
1I
1J
b111 K
b1000000000 P
#323
0I
0J
b101111000001110111111111101000 2"
#325
b10000000000000000000000101011000 "
1I
1J
b1000 K
b1000100110000 P
#326
0I
0J
b101111000001110111111111101001 2"
#328
b10000000000000000000000101011100 "
1I
1J
b1001 K
b1 P
#329
0I
0J
b101111000001110111111111101010 2"
#331
b10000000000000000000000101100000 "
1I
1J
b1010 K
b1111101000 P
#332
0I
0J
b101111000001110111111111101011 2"
#334
b10000000000000000000000101100100 "
1I
1J
b1011 K
b0 P
#335
0I
0J
b101111000001110111111111101100 2"
#337
b10000000000000000000000101101000 "
1I
1J
b1100 K
#338
0I
0J
b101111000001110111111111101101 2"
#340
b10000000000000000000000101101100 "
1I
1J
b1101 K
b10001100110010011010001 P
#341
0I
0J
b101111000001110111111111101110 2"
#343
b10000000000000000000000101110000 "
1I
1J
b1110 K
b1111100111 P
#344
0I
0J
b101111000001110111111111101111 2"
#346
b10000000000000000000000101110100 "
1I
1J
b1111 K
b10001100110010011010010 P
#347
0I
0J
b101111000001110111111111110000 2"
#349
b10000000000000000000000101111000 "
1I
1J
b10000 K
b111 P
#350
0I
0J
b101111000001110111111111110001 2"
#352
b10000000000000000000000101111100 "
1I
1J
b10001 K
b1 P
#353
0I
0J
b101111000001110111111111110010 2"
#355
b10000000000000000000000110000000 "
1I
1J
b10010 K
b100 P
#356
0I
0J
b101111000001110111111111110011 2"
#358
b10000000000000000000000110000100 "
1I
1J
b10011 K
b1111111111111111111111111111111110000000000011110000000000000000 P
#359
0I
0J
b101111000001110111111111110100 2"
#361
b10000000000000000000000110001000 "
1I
1J
b10100 K
b0 P
#362
0I
0J
b101111000001110111111111110101 2"
#364
b10000000000000000000000110001100 "
1I
1J
b10101 K
b1111111111111111111111111111111110000000000100010011110100010000 P
#365
0I
0J
b101111000001110111111111110110 2"
#367
b10000000000000000000000110010000 "
1I
1J
b10110 K
b1000111111000 P
#368
0I
0J
b101111000001110111111111110111 2"
#370
b10000000000000000000000110010100 "
1I
1J
b10111 K
b1111111111111111111111111111111110000000000011001100000000000000 P
#371
0I
0J
b101111000001110111111111111000 2"
#373
b10000000000000000000000110011000 "
1I
1J
b11000 K
b0 P
#374
0I
0J
b101111000001110111111111111001 2"
#376
b10000000000000000000000110011100 "
1I
1J
b11001 K
b1111011100000 P
#377
0I
0J
b101111000001110111111111111010 2"
#379
b10000000000000000000000110100000 "
1I
1J
b11010 K
b1111111111111111111111111111111110000000000100011000000000000000 P
#380
0I
0J
b101111000001110111111111111011 2"
#382
b10000000000000000000000110100100 "
1I
1J
b11011 K
b0 P
#383
0I
0J
b101111000001110111111111111100 2"
#385
b10000000000000000000000110101000 "
1I
1J
b11100 K
#386
0I
0J
b101111000001110111111111111101 2"
#388
b10000000000000000000000110101100 "
1I
1J
b11101 K
#389
0I
0J
b101111000001110111111111111110 2"
#391
b10000000000000000000000110110000 "
1I
1J
b11110 K
b110110110110110110110110110110110110110110110110110110110110111 P
#392
0I
0J
b101111000001110111111111111111 2"
#394
b10000000000000000000000110110100 "
1I
1J
b11111 K
b1111111111111111111111111111111110000000000011110010011001010100 P
#395
0I
0J
b101111000001111000000000000000 2"
#397
b10000000000000000000000110111000 "
1I
1J
b10 K
b1111111111111111111111111111111110000000000100010011110001110000 P
#398
b10000000000000000000000110111100 "
b0 K
b1011000100001001 P
b101111000001111000000000000001 2"
#399
b10000000000000000000000111000000 "
0I
0J
b10 K
b10000000000000001011110111000000 P
b101111000001111000000000000010 2"
#407
b111111110000000000010111010001101000100 "
1I
1J
b1111 K
b1 P
#408
0I
0J
b101111000001111000000000000011 2"
#409
b111111110000000000010111010001101000110 "
1I
b0 K
b1111111111111111111111111111111110000000000010111010001101001010 P
#410
0I
b101111000001111000000000000100 2"
#477
b111111110000000000010111010001101001010 "
1I
1J
b1111 K
b1111111111111111111111111111111111111111111111111111111111111111 P
#478
b111111110000000000010111010001101001110 "
0J
b0 P
b101111000001111000000000000101 2"
#479
0I
b101111000001111000000000000110 2"
#486
b10000000000000000000000000000100 "
1I
1J
b10 K
b10000000000000001011110111000000 P
#487
0I
0J
b101111000001111000000000000111 2"
#488
b10000000000000000000000000001000 "
1I
b0 K
b10000000000000000000000000001100 P
#489
0I
b101111000001111000000000001000 2"
#491
b10000000000000000000000000001100 "
1I
b1111101000 P
#492
0I
b101111000001111000000000001001 2"
#494
b10000000000000000000000000010000 "
1I
b0 P
#495
b10000000000000000000000000010100 "
1J
b1011 K
b10 P
b101111000001111000000000001010 2"
#496
0I
0J
b101111000001111000000000001011 2"
#497
b10000000000000000000000000011000 "
1I
b0 K
b10000000000000000000000000011100 P
#498
0I
b101111000001111000000000001100 2"
#500
b10000000000000000000000010011100 "
1I
b1111111111111111111111111111111110000000000000011001110100101100 P
#501
0I
b101111000001111000000000001101 2"
#503
b10000000000000000000000010100000 "
1I
b1111111111111111111111111111111110000000000011101010100001101000 P
#504
0I
b101111000001111000000000001110 2"
#506
b10000000000000000000000010100100 "
1I
b1111111111111111111111111111111110000000000100011000000000000000 P
#507
0I
b101111000001111000000000001111 2"
#509
b10000000000000000000000010101000 "
1I
b1111111111111111111111111111111110000000000011110101111001001000 P
#510
b10000000000000000000000010101100 "
1J
b101 K
b10000000000000001001000010101100 P
b101111000001111000000000010000 2"
#511
0I
0J
b101111000001111000000000010001 2"
#512
1s"
#513
b10000000000000000000000010110000 "
1I
b0 K
b111000 P
#514
b10000000000000000000000010110100 "
1J
b110 K
b10000 P
b101111000001111000000000010010 2"
#515
0I
0J
b101111000001111000000000010011 2"
#517
b10000000000000000000000010111000 "
1I
b0 K
b1000000000 P
#518
b10000000000000000000000010111100 "
1J
b110 K
b10000000000000001001000010111100 P
b101111000001111000000000010100 2"
#519
0I
0J
b101111000001111000000000010101 2"
#521
b10000000000000000000000011000000 "
1I
b0 K
b1000100110000 P
#522
0I
b101111000001111000000000010110 2"
#524
b10000000000000000000000011000100 "
1I
1J
b110 K
b10000000000000000010101101000010 P
#525
0I
0J
b101111000001111000000000010111 2"
#527
b10000000000000000000000011001000 "
1I
b0 K
b1 P
#528
b10000000000000000000000011001100 "
1J
b1010 K
b10000000000000001011110111000000 P
b101111000001111000000000011000 2"
#529
0I
0J
b101111000001111000000000011001 2"
#531
b10000000000000000000000011010000 "
1I
b0 K
b0 P
#532
b10000000000000000000000011010100 "
1J
b1100 K
b1111111111111111111111111111111110000000000010111010001101001110 P
b101111000001111000000000011010 2"
#533
0I
0J
b101111000001111000000000011011 2"
#535
b10000000000000000000000011011000 "
1I
b0 K
b10001100110010011010001 P
#536
b10000000000000000000000011011100 "
1J
b101 K
b1111111111111111111111111111111110000000000100010011110001110000 P
b101111000001111000000000011100 2"
#537
0I
0J
b101111000001111000000000011101 2"
#539
b10000000000000000000000011100000 "
1I
b0 K
b1111100111 P
#540
0I
b101111000001111000000000011110 2"
#542
b10000000000000000000000011100100 "
1I
b10001100110010011010010 P
#543
0I
b101111000001111000000000011111 2"
#545
b10000000000000000000000011101000 "
1I
b111 P
#546
0I
b101111000001111000000000100000 2"
#548
b10000000000000000000000011101100 "
1I
b1 P
#549
0I
b101111000001111000000000100001 2"
#551
b10000000000000000000000011110000 "
1I
b100 P
#552
0I
b101111000001111000000000100010 2"
#554
b10000000000000000000000011110100 "
1I
b1111111111111111111111111111111110000000000011110000000000000000 P
#555
0I
b101111000001111000000000100011 2"
#557
b10000000000000000000000011111000 "
1I
b0 P
#558
0I
b101111000001111000000000100100 2"
#560
b10000000000000000000000011111100 "
1I
b1111111111111111111111111111111110000000000100010011110100010000 P
#561
0I
b101111000001111000000000100101 2"
#563
b10000000000000000000000100000000 "
1I
b1000111111000 P
#564
0I
b101111000001111000000000100110 2"
#566
b10000000000000000000000100000100 "
1I
b1111111111111111111111111111111110000000000011001100000000000000 P
#567
0I
b101111000001111000000000100111 2"
#569
b10000000000000000000000100001000 "
1I
b0 P
#570
0I
b101111000001111000000000101000 2"
#572
b10000000000000000000000100001100 "
1I
b1111011100000 P
#573
0I
b101111000001111000000000101001 2"
#575
b10000000000000000000000100010000 "
1I
b1111111111111111111111111111111110000000000100011000000000000000 P
#576
0I
b101111000001111000000000101010 2"
#578
b10000000000000000000000100010100 "
1I
b0 P
#579
0I
b101111000001111000000000101011 2"
#581
b10000000000000000000000100011000 "
1I
#582
0I
b101111000001111000000000101100 2"
#584
b10000000000000000000000100011100 "
1I
#585
0I
b101111000001111000000000101101 2"
#587
b10000000000000000000000100100000 "
1I
b110110110110110110110110110110110110110110110110110110110110111 P
#588
0I
b101111000001111000000000101110 2"
#590
b10000000000000000000000100100100 "
1I
b1111111111111111111111111111111110000000000011110010011001010100 P
#591
0I
b101111000001111000000000101111 2"
#593
b10000000000000000000000100101000 "
1I
b1111111111111111111111111111111110000000000100010011110001110000 P
#594
0I
b101111000001111000000000110000 2"
#597
b10000000000000000000000100101100 "
1I
1J
b100 K
b0 P
#598
0I
0J
b101111000001111000000000110001 2"
#600
b10000000000000000000000100110000 "
1I
b0 K
#601
b10000000000000000000000100110100 "
1J
b1 K
b10000000000000000000000100111000 P
b101111000001111000000000110010 2"
#602
0I
0J
b101111000001111000000000110011 2"
#609
b10000000000000000010101101000010 "
1I
1J
b11100 K
b10 P
#610
b10000000000000000010101101000100 "
b1111 K
b1111111111111111111111111111111110000000000010111010001101001110 P
b101111000001111000000000110100 2"
#611
0I
0J
b101111000001111000000000110101 2"
#612
b10000000000000000010101101000110 "
1I
1J
b10001 K
b100000100010 P
#613
b10000000000000000010101101001010 "
b1110 K
b0 P
b101111000001111000000000110110 2"
#614
b10000000000000000010101101001110 "
b10000 K
b11 P
b101111000001111000000000110111 2"
#615
b10000000000000000010101101010000 "
b110 K
b0 P
b101111000001111000000000111000 2"
#616
b10000000000000000010101101010100 "
0J
b0 K
b10000000000000000010101101011000 P
b101111000001111000000000111001 2"
#617
b10000000000000000010101101111100 "
b10000000000000000010101101111110 P
b101111000001111000000000111010 2"
#618
b10000000000000000010101111101100 "
1J
b1011 K
b10100000000000000000 P
b101111000001111000000000111011 2"
#619
b10000000000000000010101111110000 "
b1101 K
b100000100010 P
b101111000001111000000000111100 2"
#620
b10000000000000000010101111110100 "
b10001 K
b10 P
b101111000001111000000000111101 2"
#621
b10000000000000000010101111111000 "
0J
b0 K
b10000000000000000010101111111100 P
b101111000001111000000000111110 2"
#622
0I
b101111000001111000000000111111 2"
#635
b10000000000000000010110000001110 "
1I
1J
b1110 K
b10011111110011 P
#636
b10000000000000000010110000010010 "
b10001 K
b11 P
b101111000001111000000001000000 2"
#637
b10000000000000000010110000010110 "
0J
b0 K
b10000000000000000010110000011010 P
b101111000001111000000001000001 2"
#638
0I
b101111000001111000000001000010 2"
#643
b10000000000000000010110000011010 "
1I
1J
b10001 K
b1100000000010000 P
#644
b10000000000000000010110000011110 "
b11000000000100000000000000000000 P
b101111000001111000000001000011 2"
#645
b10000000000000000010110000100000 "
b1110 K
b11000000000100000010011111110011 P
b101111000001111000000001000100 2"
#646
b10000000000000000010110000100010 "
b0 K
b10100000100000100010 P
b101111000001111000000001000101 2"
#647
b10000000000000000010110000100110 "
b1100 K
b11 P
b101111000001111000000001000110 2"
#648
b10000000000000000010110000101010 "
b10001 K
b100000100010 P
b101111000001111000000001000111 2"
#649
b10000000000000000010110000101100 "
0J
b0 K
b10000000000000000010110000110000 P
b101111000001111000000001001000 2"
#650
b10000000000000000010101101011000 "
1J
b1101 K
b1111111111111111111111111111111110000000000010111010001101010010 P
b101111000001111000000001001001 2"
#651
b10000000000000000010101101011100 "
b0 K
b1111111111111111111111111111111110000000000010111010001101001110 P
b101111000001111000000001001010 2"
#652
b10000000000000000010101101100000 "
b10000 K
b10000000000000000110101101100000 P
b101111000001111000000001001011 2"
#653
b10000000000000000010101101100100 "
b10000000000000000110100111001000 P
b101111000001111000000001001100 2"
#654
b10000000000000000010101101101000 "
b1100 K
b1110000 P
b101111000001111000000001001101 2"
#655
b10000000000000000010101101101100 "
b10000000000000000110101000111000 P
b101111000001111000000001001110 2"
#656
0I
0J
b101111000001111000000001001111 2"
#660
b10000000000000000010101101101110 "
1I
1J
b110 K
b1111111111111111111111111111111111111111111111111100001101000110 P
#661
b10000000000000000010101101110010 "
b1101 K
b100000100010 P
b101111000001111000000001010000 2"
#662
b10000000000000000010101101110100 "
b1100 K
b1111111111111111111111111111111110000000000010111010001101001110 P
b101111000001111000000001010001 2"
#663
b10000000000000000010101101110110 "
b110 K
b10000000000000000010110100001110 P
b101111000001111000000001010010 2"
#664
b10000000000000000010101101111000 "
b1011 K
b10 P
b101111000001111000000001010011 2"
#665
b10000000000000000010101101111010 "
b0 K
b10000000000000000010101101111100 P
b101111000001111000000001010100 2"
