fpga/.Xil/Vivado-69201-zhaodi-node32/hw_ila_data_3/zip_work/waveform.vcd
$date
        2022-Jul-20 05:31:52
$end
$version
        Vivado v2020.2 (64-bit)
$end
$timescale
        1ps
$end
$scope module dut $end
$var reg 2 " system_top_i/system_ila_1/inst/net_slot_0_axi_ar_cnt [1:0] $end
$var reg 32 $ system_top_i/system_ila_1/inst/net_slot_0_axi_araddr [31:0] $end
$var reg 2 D system_top_i/system_ila_1/inst/net_slot_0_axi_arburst [1:0] $end
$var reg 4 F system_top_i/system_ila_1/inst/net_slot_0_axi_arcache [3:0] $end
$var reg 1 J system_top_i/system_ila_1/inst/net_slot_0_axi_arid $end
$var reg 8 K system_top_i/system_ila_1/inst/net_slot_0_axi_arlen [7:0] $end
$var reg 1 S system_top_i/system_ila_1/inst/net_slot_0_axi_arlock $end
$var reg 3 T system_top_i/system_ila_1/inst/net_slot_0_axi_arprot [2:0] $end
$var reg 4 W system_top_i/system_ila_1/inst/net_slot_0_axi_arqos [3:0] $end
$var reg 3 [ system_top_i/system_ila_1/inst/net_slot_0_axi_arsize [2:0] $end
$var reg 1 ^ system_top_i/system_ila_1/inst/net_slot_0_axi_aruser $end
$var reg 2 _ system_top_i/system_ila_1/inst/net_slot_0_axi_aw_cnt [1:0] $end
$var reg 32 a system_top_i/system_ila_1/inst/net_slot_0_axi_awaddr [31:0] $end
$var reg 2 #" system_top_i/system_ila_1/inst/net_slot_0_axi_awburst [1:0] $end
$var reg 4 %" system_top_i/system_ila_1/inst/net_slot_0_axi_awcache [3:0] $end
$var reg 1 )" system_top_i/system_ila_1/inst/net_slot_0_axi_awid $end
$var reg 8 *" system_top_i/system_ila_1/inst/net_slot_0_axi_awlen [7:0] $end
$var reg 1 2" system_top_i/system_ila_1/inst/net_slot_0_axi_awlock $end
$var reg 3 3" system_top_i/system_ila_1/inst/net_slot_0_axi_awprot [2:0] $end
$var reg 4 6" system_top_i/system_ila_1/inst/net_slot_0_axi_awqos [3:0] $end
$var reg 3 :" system_top_i/system_ila_1/inst/net_slot_0_axi_awsize [2:0] $end
$var reg 1 =" system_top_i/system_ila_1/inst/net_slot_0_axi_awuser $end
$var reg 2 >" system_top_i/system_ila_1/inst/net_slot_0_axi_b_cnt [1:0] $end
$var reg 1 @" system_top_i/system_ila_1/inst/net_slot_0_axi_bid $end
$var reg 2 A" system_top_i/system_ila_1/inst/net_slot_0_axi_bresp [1:0] $end
$var reg 1 C" system_top_i/system_ila_1/inst/net_slot_0_axi_buser $end
$var reg 2 D" system_top_i/system_ila_1/inst/net_slot_0_axi_r_cnt [1:0] $end
$var reg 64 F" system_top_i/system_ila_1/inst/net_slot_0_axi_rdata [63:0] $end
$var reg 1 (# system_top_i/system_ila_1/inst/net_slot_0_axi_rid $end
$var reg 2 )# system_top_i/system_ila_1/inst/net_slot_0_axi_rresp [1:0] $end
$var reg 1 +# system_top_i/system_ila_1/inst/net_slot_0_axi_ruser $end
$var reg 64 ,# system_top_i/system_ila_1/inst/net_slot_0_axi_wdata [63:0] $end
$var reg 8 l# system_top_i/system_ila_1/inst/net_slot_0_axi_wstrb [7:0] $end
$var reg 2 t# system_top_i/system_ila_1/inst/net_slot_0_axi_aw_ctrl [1:0] $end
$var reg 1 v# system_top_i/system_ila_1/inst/net_slot_0_axi_awvalid $end
$var reg 1 w# system_top_i/system_ila_1/inst/net_slot_0_axi_awready $end
$var reg 1 x# system_top_i/system_ila_1/inst/net_slot_0_axi_wvalid $end
$var reg 3 y# system_top_i/system_ila_1/inst/net_slot_0_axi_w_ctrl [2:0] $end
$var reg 1 |# system_top_i/system_ila_1/inst/net_slot_0_axi_wready $end
$var reg 1 }# system_top_i/system_ila_1/inst/net_slot_0_axi_wlast $end
$var reg 1 ~# system_top_i/system_ila_1/inst/net_slot_0_axi_bvalid $end
$var reg 2 !$ system_top_i/system_ila_1/inst/net_slot_0_axi_b_ctrl [1:0] $end
$var reg 1 #$ system_top_i/system_ila_1/inst/net_slot_0_axi_bready $end
$var reg 2 $$ system_top_i/system_ila_1/inst/net_slot_0_axi_ar_ctrl [1:0] $end
$var reg 1 &$ system_top_i/system_ila_1/inst/net_slot_0_axi_arvalid $end
$var reg 1 '$ system_top_i/system_ila_1/inst/net_slot_0_axi_arready $end
$var reg 1 ($ system_top_i/system_ila_1/inst/net_slot_0_axi_rvalid $end
$var reg 3 )$ system_top_i/system_ila_1/inst/net_slot_0_axi_r_ctrl [2:0] $end
$var reg 1 ,$ system_top_i/system_ila_1/inst/net_slot_0_axi_rready $end
$var reg 1 -$ system_top_i/system_ila_1/inst/net_slot_0_axi_rlast $end
$var reg 2 .$ system_top_i/system_ila_1/inst/net_slot_1_axi_ar_cnt [1:0] $end
$var reg 32 0$ system_top_i/system_ila_1/inst/net_slot_1_axi_araddr [31:0] $end
$var reg 2 P$ system_top_i/system_ila_1/inst/net_slot_1_axi_arburst [1:0] $end
$var reg 4 R$ system_top_i/system_ila_1/inst/net_slot_1_axi_arcache [3:0] $end
$var reg 1 V$ system_top_i/system_ila_1/inst/net_slot_1_axi_arid $end
$var reg 8 W$ system_top_i/system_ila_1/inst/net_slot_1_axi_arlen [7:0] $end
$var reg 1 _$ system_top_i/system_ila_1/inst/net_slot_1_axi_arlock $end
$var reg 3 `$ system_top_i/system_ila_1/inst/net_slot_1_axi_arprot [2:0] $end
$var reg 4 c$ system_top_i/system_ila_1/inst/net_slot_1_axi_arqos [3:0] $end
$var reg 3 g$ system_top_i/system_ila_1/inst/net_slot_1_axi_arsize [2:0] $end
$var reg 1 j$ system_top_i/system_ila_1/inst/net_slot_1_axi_aruser $end
$var reg 2 k$ system_top_i/system_ila_1/inst/net_slot_1_axi_aw_cnt [1:0] $end
$var reg 32 m$ system_top_i/system_ila_1/inst/net_slot_1_axi_awaddr [31:0] $end
$var reg 2 /% system_top_i/system_ila_1/inst/net_slot_1_axi_awburst [1:0] $end
$var reg 4 1% system_top_i/system_ila_1/inst/net_slot_1_axi_awcache [3:0] $end
$var reg 1 5% system_top_i/system_ila_1/inst/net_slot_1_axi_awid $end
$var reg 8 6% system_top_i/system_ila_1/inst/net_slot_1_axi_awlen [7:0] $end
$var reg 1 >% system_top_i/system_ila_1/inst/net_slot_1_axi_awlock $end
$var reg 3 ?% system_top_i/system_ila_1/inst/net_slot_1_axi_awprot [2:0] $end
$var reg 4 B% system_top_i/system_ila_1/inst/net_slot_1_axi_awqos [3:0] $end
$var reg 3 F% system_top_i/system_ila_1/inst/net_slot_1_axi_awsize [2:0] $end
$var reg 1 I% system_top_i/system_ila_1/inst/net_slot_1_axi_awuser $end
$var reg 2 J% system_top_i/system_ila_1/inst/net_slot_1_axi_b_cnt [1:0] $end
$var reg 1 L% system_top_i/system_ila_1/inst/net_slot_1_axi_bid $end
$var reg 2 M% system_top_i/system_ila_1/inst/net_slot_1_axi_bresp [1:0] $end
$var reg 1 O% system_top_i/system_ila_1/inst/net_slot_1_axi_buser $end
$var reg 2 P% system_top_i/system_ila_1/inst/net_slot_1_axi_r_cnt [1:0] $end
$var reg 64 R% system_top_i/system_ila_1/inst/net_slot_1_axi_rdata [63:0] $end
$var reg 1 4& system_top_i/system_ila_1/inst/net_slot_1_axi_rid $end
$var reg 2 5& system_top_i/system_ila_1/inst/net_slot_1_axi_rresp [1:0] $end
$var reg 1 7& system_top_i/system_ila_1/inst/net_slot_1_axi_ruser $end
$var reg 64 8& system_top_i/system_ila_1/inst/net_slot_1_axi_wdata [63:0] $end
$var reg 8 x& system_top_i/system_ila_1/inst/net_slot_1_axi_wstrb [7:0] $end
$var reg 2 "' system_top_i/system_ila_1/inst/net_slot_1_axi_aw_ctrl [1:0] $end
$var reg 1 $' system_top_i/system_ila_1/inst/net_slot_1_axi_awvalid $end
$var reg 1 %' system_top_i/system_ila_1/inst/net_slot_1_axi_awready $end
$var reg 3 &' system_top_i/system_ila_1/inst/net_slot_1_axi_w_ctrl [2:0] $end
$var reg 1 )' system_top_i/system_ila_1/inst/net_slot_1_axi_wvalid $end
$var reg 1 *' system_top_i/system_ila_1/inst/net_slot_1_axi_wready $end
$var reg 1 +' system_top_i/system_ila_1/inst/net_slot_1_axi_wlast $end
$var reg 1 ,' system_top_i/system_ila_1/inst/net_slot_1_axi_bvalid $end
$var reg 2 -' system_top_i/system_ila_1/inst/net_slot_1_axi_b_ctrl [1:0] $end
$var reg 1 /' system_top_i/system_ila_1/inst/net_slot_1_axi_bready $end
$var reg 2 0' system_top_i/system_ila_1/inst/net_slot_1_axi_ar_ctrl [1:0] $end
$var reg 1 2' system_top_i/system_ila_1/inst/net_slot_1_axi_arvalid $end
$var reg 1 3' system_top_i/system_ila_1/inst/net_slot_1_axi_arready $end
$var reg 3 4' system_top_i/system_ila_1/inst/net_slot_1_axi_r_ctrl [2:0] $end
$var reg 1 7' system_top_i/system_ila_1/inst/net_slot_1_axi_rvalid $end
$var reg 1 8' system_top_i/system_ila_1/inst/net_slot_1_axi_rready $end
$var reg 1 9' system_top_i/system_ila_1/inst/net_slot_1_axi_rlast $end
$var reg 3 :' AR_Channel__i3_s0___rv_system_io_mem_ [2:0] $end
$var reg 3 =' AR_Channel__i3_s1___rv_system_io_mmio_ [2:0] $end
$var reg 3 @' AW_Channel__i3_s0___rv_system_io_mem_ [2:0] $end
$var reg 3 C' AW_Channel__i3_s1___rv_system_io_mmio_ [2:0] $end
$var reg 3 F' B_Channel__i3_s0___rv_system_io_mem_ [2:0] $end
$var reg 3 I' B_Channel__i3_s1___rv_system_io_mmio_ [2:0] $end
$var reg 3 L' Interface__i3_s0___rv_system_io_mem_ [2:0] $end
$var reg 3 O' Interface__i3_s1___rv_system_io_mmio_ [2:0] $end
$var reg 3 R' R_Channel__i3_s0___rv_system_io_mem_ [2:0] $end
$var reg 3 U' R_Channel__i3_s1___rv_system_io_mmio_ [2:0] $end
$var reg 3 X' W_Channel__i3_s0___rv_system_io_mem_ [2:0] $end
$var reg 3 [' W_Channel__i3_s1___rv_system_io_mmio_ [2:0] $end
$var reg 16 ^' ila_3___slot_0___rv_system_io_mem___Read_Transactions_0 [15:0] $end
$var reg 1 n' _TRIGGER $end
$var reg 1 o' _WINDOW $end
$var reg 1 p' _GAP $end
$upscope $end
$enddefinitions $end
#0
$dumpvars
b0 "
b10000000000000000001101110000000 $
b10 D
b0 F
0J
b111 K
0S
b1 T
b0 W
b11 [
0^
b0 _
b10000000000000000001101110000000 a
b10 #"
b0 %"
0)"
b111 *"
02"
b1 3"
b0 6"
b11 :"
0="
b0 >"
0@"
b0 A"
0C"
b0 D"
b1000000000000000110111100000000010000000000000001101111 F"
0(#
b0 )#
0+#
b1101011111001111111000001110111101010110011101010000010100010011 ,#
b11111111 l#
b0 t#
0v#
0w#
0x#
b0 y#
0|#
0}#
0~#
b10 !$
1#$
b0 $$
0&$
0'$
0($
b110 )$
1,$
1-$
b0 .$
b1000000011000000000000000001000 0$
b1 P$
b0 R$
0V$
b0 W$
0_$
b1 `$
b0 c$
b0 g$
0j$
b0 k$
b1000000011000000000000000001000 m$
b1 /%
b0 1%
05%
b0 6%
0>%
b1 ?%
b0 B%
b0 F%
0I%
b0 J%
0L%
b0 M%
0O%
b0 P%
b100000000000000000000000000000001000 R%
04&
b0 5&
07&
b100000001000000010000000100000001000000010000000100000001000 8&
b1 x&
b0 "'
0$'
0%'
b0 &'
0)'
0*'
0+'
0,'
b10 -'
1/'
b0 0'
02'
03'
b110 4'
07'
18'
19'
b0 :'
b11 ='
b11 @'
b11 C'
b11 F'
b11 I'
b0 L'
b11 O'
b0 R'
b100 U'
b100 X'
b100 ['
b0 ^'
0n'
1o'
0p'
$end
#52
b10 )$
0-$
#53
b10 t#
1w#
b10 $$
1'$
b10 "'
1%'
b10 0'
13'
#54
b10101000001010001001111011101100001000010010100000011 R%
#131
b10000000000000000000000000000000 0$
b11 g$
b10000000000000000000000000000000 m$
b11 F%
b0 8&
b11111111 x&
#512
b10000000000000000000000000000000 $
b10000000000000000000000000000000 a
1n'
#513
b11 $$
1&$
b10 :'
b1 L'
b1 ^'
#514
b1 "
b1 D"
b0 $$
0&$
0'$
b0 :'
b0 L'
#517
b10 $$
1'$
#540
b11010000000001000100010111001100100000000000000000000001101111 F"
1($
b11 )$
b10010100001001110000010001100011010000000010000110001100011 R%
b1 L'
b1 R'
#541
b10010100001001110000010001100011010000000010000110001100011 F"
#542
b11010000100000001001011111001100000100101100010011110000100011 F"
#543
b10101100101011001001100001000000001011101001001100011 F"
#544
b1010110101000100100110001100000000111000000000010100010011 F"
#545
b11000001000101001100000111001100001000000000000000010100010011 F"
#546
b11010001000101001000000111001100000010000000000000010100010011 F"
#547
b10110000001001101011000001100000101000000010011010100000011 F"
b111 )$
1-$
b111 R'
#548
b0 "
b0 D"
b11010000000001000100010111001100100000000000000000000001101111 F"
0($
b10 )$
0-$
b0 L'
b0 R'
b0 ^'
#550
b10000000000000000000000001000000 $
b10000000000000000000000001000000 a
#551
b11 $$
1&$
b10 :'
b1 L'
b10 ^'
#552
b1 "
b1 D"
b0 $$
0&$
0'$
b0 :'
b0 L'
#553
b10000000000000000000001000000000 0$
b10000000000000000000001000000000 m$
#555
b10 $$
1'$
#578
b11000000100000000000000111001100110100000000010001000101110011 F"
1($
b11 )$
b1100010110101000101100110001100000000011000000000010100010011 R%
b1 L'
b1 R'
#579
b1100010110101000101100110001100000000011000000000010100010011 F"
#580
b101001000000010001100100000000000010011010100000011 F"
#581
b10000010000001000001010001001100001111111100000000000000001111 F"
#582
b10101011101011001001100001000000001010010010100101111 F"
#583
b11010001000001011000000111001100000000000001011000010001100011 F"
#584
b101100001000110001100000000001001010111010110010011 F"
#585
b1000101011101011001001100000000000000000001000000001111 F"
b111 )$
1-$
b111 R'
#586
b0 "
b0 D"
b11000000100000000000000111001100110100000000010001000101110011 F"
0($
b10 )$
0-$
b0 L'
b0 R'
b0 ^'
#588
b10000000000000000000001000000000 $
b10000000000000000000001000000000 a
#589
b11 $$
1&$
b10 :'
b1 L'
b11 ^'
#590
b1 "
b1 D"
b0 $$
0&$
0'$
b0 :'
b0 L'
#593
b10 $$
1'$
#616
b10001001100000000000000000000000010010011 F"
1($
b11 )$
b100001001100000000000000000000000110010011 R%
b1 L'
b1 R'
#617
b100001001100000000000000000000000110010011 F"
#618
b110001001100000000000000000000001010010011 F"
#619
b1000001001100000000000000000000001110010011 F"
#620
b1100001001100000000000000000000010010010011 F"
#621
b1110001001100000000000000000000011010010011 F"
#622
b10000001001100000000000000000000011110010011 F"
#623
b10010001001100000000000000000000100010010011 F"
b111 )$
1-$
b111 R'
#624
b0 "
b0 D"
b10001001100000000000000000000000010010011 F"
0($
b10 )$
0-$
b0 L'
b0 R'
b0 ^'
#626
b10000000000000000000001001000000 $
b10000000000000000000001001000000 a
#627
b11 $$
1&$
b10 :'
b1 L'
b100 ^'
#628
b1 "
b1 D"
b0 $$
0&$
0'$
b0 :'
b0 L'
#631
b10 $$
1'$
#644
b10000000000000000000001001000000 0$
b10000000000000000000001001000000 m$
#654
b10100001001100000000000000000000100110010011 F"
1($
b11 )$
b10110001001100000000000000000000101010010011 R%
b1 L'
b1 R'
#655
b10110001001100000000000000000000101010010011 F"
#656
b11000001001100000000000000000000101110010011 F"
#657
b11010001001100000000000000000000110010010011 F"
#658
b11100001001100000000000000000000110110010011 F"
#659
b11110001001100000000000000000000111010010011 F"
#660
b11010000000000000100000111001100000000000000000000111110010011 F"
#661
b1101100011000010100000101001001100000000000000000000001010010111 F"
b111 )$
1-$
b111 R'
#662
b0 "
b0 D"
b10100001001100000000000000000000100110010011 F"
0($
b10 )$
0-$
b0 L'
b0 R'
b0 ^'
#665
b11 $$
1&$
b10 :'
b1 L'
b100 ^'
#666
b1 "
b1 D"
b0 $$
0&$
0'$
b0 :'
b0 L'
#669
b10 $$
1'$
#690
1($
b11 )$
b1 L'
b1 R'
#691
b10110001001100000000000000000000101010010011 F"
#692
b11000001001100000000000000000000101110010011 F"
#693
b11010001001100000000000000000000110010010011 F"
#694
b11100001001100000000000000000000110110010011 F"
#695
b11110001001100000000000000000000111010010011 F"
#696
b11010000000000000100000111001100000000000000000000111110010011 F"
#697
b1101100011000010100000101001001100000000000000000000001010010111 F"
b111 )$
1-$
b111 R'
#698
b0 "
b0 D"
b10100001001100000000000000000000100110010011 F"
0($
b10 )$
0-$
b0 L'
b0 R'
b0 ^'
#700
b10000000000000000000001010000000 $
b10000000000000000000001010000000 a
#701
b11 $$
1&$
b10 :'
b1 L'
b101 ^'
#702
b1 "
b1 D"
b0 $$
0&$
0'$
b0 :'
b0 L'
#705
b10 $$
1'$
#718
b10000000000000000000001010000000 0$
b10000000000000000000001010000000 m$
#728
b11000001010000001000110111001100110000010100101001000001110011 F"
1($
b11 )$
b110000010001011100000000011000101001000001100011 R%
b1 L'
b1 R'
#729
b110000010001011100000000011000101001000001100011 F"
#730
b1111000101000000001001101111001110110011010000010000000100010011 F"
#731
b11000001000000010011001100000000110001101001011000010011 F"
#732
b101110010010000000100000110111100000000000001101001010001100011 F"
#733
b11000001000110000100000111001100000000100000000000011000010011 F"
#734
b1001101110001011100010000010100000000000001110011 F"
#735
b111001101110000001111010110110001110000011100010011 F"
b111 )$
1-$
b111 R'
#736
b0 "
b0 D"
b11000001010000001000110111001100110000010100101001000001110011 F"
0($
b10 )$
0-$
b0 L'
b0 R'
b0 ^'
#739
b11 $$
1&$
b10 :'
b1 L'
b101 ^'
#740
b1 "
b1 D"
b0 $$
0&$
0'$
b0 :'
b0 L'
#743
b10 $$
1'$
#764
1($
b11 )$
b1 L'
b1 R'
#765
b110000010001011100000000011000101001000001100011 F"
#766
b1111000101000000001001101111001110110011010000010000000100010011 F"
#767
b11000001000000010011001100000000110001101001011000010011 F"
#768
b101110010010000000100000110111100000000000001101001010001100011 F"
#769
b11000001000110000100000111001100000000100000000000011000010011 F"
#770
b1001101110001011100010000010100000000000001110011 F"
#771
b111001101110000001111010110110001110000011100010011 F"
b111 )$
1-$
b111 R'
#772
b0 "
b0 D"
b11000001010000001000110111001100110000010100101001000001110011 F"
0($
b10 )$
0-$
b0 L'
b0 R'
b0 ^'
#774
b10000000000000000000001011000000 $
b10000000000000000000001011000000 a
#775
b11 $$
1&$
b10 :'
b1 L'
b110 ^'
#776
b1 "
b1 D"
b0 $$
0&$
0'$
b0 :'
b0 L'
#779
b10 $$
1'$
#795
b10000000000000000010000001101000 0$
b10000000000000000010000001101000 m$
#802
b10111011101110001001100000000110101110101011100110011 F"
1($
b11 )$
b111111110000000000000000111111111110000001110001010011100011 R%
b1 L'
b1 R'
#803
b111111110000000000000000111111111110000001110001010011100011 F"
#804
b11000110111101000110001100000000100000000000011000010011 F"
#805
b1000001010000000000000111001101101100011100000001000001101111 F"
#806
b1110110000000110000100010000000111111101000111111111000001101111 F"
#807
b1001101111001011111100100001001101110100000100010 F"
#808
b1111011000111000000011010001010001111000011110010011 F"
#809
b1111000101000000001001001111001111011100011011010000111111110000 F"
b111 )$
1-$
b111 R'
#810
b0 "
b0 D"
b10111011101110001001100000000110101110101011100110011 F"
0($
b10 )$
0-$
b0 L'
b0 R'
b0 ^'
#812
b10000000000000000010000001000000 $
b10000000000000000010000001000000 a
#813
b10000000000000000010000001101000 $
b10000000000000000010000001101000 a
b11 $$
1&$
b10 :'
b1 L'
b111 ^'
#814
b1 "
b10000000000000000010000001000000 $
b10000000000000000010000001000000 a
b1 D"
b0 $$
0&$
0'$
b0 :'
b0 L'
#816
b1001101111001011111100100001001101110100000100010 F"
#817
b10 $$
1'$
#838
b111010100010111000100010100000110000000100000100000001000000101 F"
1($
b11 )$
b11000000100011100101010011111011111100000001111000011110010011 R%
b1 L'
b1 R'
#839
b1110010000000110000000010010010100000101000100110000000000000000 F"
#840
b11101010001011101010001000000000000000011101111 F"
#841
b1000110101111001000001111011001001110111011111011001010100001010 F"
#842
b11000000100011100101010011111011111100000001111000011110010011 F"
#843
b11100000100011000000000000010100110100001000110000000000000101 F"
#844
b11000000100011000000000000010100111100001000110000000000000101 F"
#845
b11100000100011000000100000010100110100001000110000001000000101 F"
b111 )$
1-$
b111 R'
#846
b0 "
b0 D"
b111010100010111000100010100000110000000100000100000001000000101 F"
0($
b10 )$
0-$
b0 L'
b0 R'
b0 ^'
#848
b10000000000000000000000010000000 $
b10000000000000000000000010000000 a
#849
b11 $$
1&$
b10 :'
b1 L'
b1000 ^'
#850
b1 "
b1 D"
b0 $$
0&$
0'$
b0 :'
b0 L'
#852
b1000110101111001000001111011001001110111011111011001010100001010 F"
#853
b10 $$
1'$
#855
b10000000000000000010000010000000 0$
b10000000000000000010000010000000 m$
#857
b10000000000000001011110110111000 0$
b10000000000000001011110110111000 m$
b100 &'
1+'
#876
b1001000000000000000000111001100000000000001011000010001100011 F"
1($
b11 )$
b101100001100110001100000000100001010111010110010011 R%
b1 L'
b1 R'
#877
b101100001100110001100000000100001010111010110010011 F"
#878
b1111111101011111111100000110111100010000010100000000000001110011 F"
#879
b10001001101000010001111111010000111111111000001101111 F"
#880
b1001000001001100000010001100000000001100010011110000100011 F"
#881
b100100101001011100000010010100010011010000100011 F"
#882
b110101100100110001001100000010011000010011100000100011 F"
#883
b1100010100000110011001100000010011100010011110000100011 F"
b111 )$
1-$
b111 R'
#884
b0 "
b0 D"
b1001000000000000000000111001100000000000001011000010001100011 F"
0($
b10 )$
0-$
b0 L'
b0 R'
b0 ^'
#886
b10000000000000000010000010000000 $
b10000000000000000010000010000000 a
#887
b11 $$
1&$
b10 :'
b1 L'
b1001 ^'
#888
b1 "
b1 D"
b0 $$
0&$
0'$
b0 :'
b0 L'
#891
b10 $$
1'$
#912
b110000000100000000000001110111100000000010001010000010100010011 F"
1($
b11 )$
b1111111110000101000001010001001100000000000000000111010100010111 R%
b1 L'
b1 R'
#913
b1111111110000101000001010001001100000000000000000111010100010111 F"
#914
b11101010001011101110001111000000000000011101111 F"
#915
b1011110010000000000001110111111111110110001010000010100010011 F"
#916
b1111111000000101000001010001001100000000000000000111010100010111 F"
#917
b10101010001011100111101110000000000000011101111 F"
#918
b1011110111011111111100001110111100010001010001010000010100010011 F"
#919
b1111000011101111010001010000000111100001110111111111000011101111 F"
b111 )$
1-$
b111 R'
#920
b0 "
b0 D"
b110000000100000000000001110111100000000010001010000010100010011 F"
0($
b10 )$
0-$
b0 L'
b0 R'
b0 ^'
#922
b10000000000000000011110111000000 $
b10000000000000000011110111000000 a
#923
b10000000000000001011110111111000 $
b10000000000000001011110111111000 a
b11 $$
1&$
b10 :'
b1 L'
b1010 ^'
#924
b1 "
b10000000000000000011110111000000 $
b10000000000000000011110111000000 a
b1 D"
b0 $$
0&$
0'$
b0 :'
b0 L'
#926
b1111000011101111010001010000000111100001110111111111000011101111 F"
#927
b10 $$
1'$
#950
b0 F"
1($
b11 )$
b0 R%
b1 L'
b1 R'
#957
b111 )$
1-$
b111 R'
#958
b0 "
b0 D"
0($
b10 )$
0-$
b0 L'
b0 R'
b0 ^'
#960
b10000000000000000011110110000000 $
b10000000000000000011110110000000 a
#961
b10000000000000001011110110111000 $
b10000000000000001011110110111000 a
b11 $$
1&$
b10 :'
b1 L'
b1011 ^'
#962
b1 "
b10000000000000000011110110000000 $
b10000000000000000011110110000000 a
b1 D"
b0 $$
0&$
0'$
b0 :'
b0 L'
#965
b10 $$
1'$
#988
1($
b11 )$
b1 L'
b1 R'
#995
b111 )$
1-$
b111 R'
#996
b0 "
b0 D"
0($
b10 )$
0-$
b0 L'
b0 R'
b0 ^'
#998
b10000000000000000001110111000000 $
b10000000000000000001110111000000 a
#999
b11 $$
1&$
b10 :'
b1 L'
#1000
b1 "
b1 D"
b0 $$
0&$
0'$
b0 :'
b0 L'
#1003
b10 $$
1'$
#1004
b10000000000000000010010110001000 0$
b10000000000000000010010110001000 m$
b0 &'
0+'
